name,entity_type,sigma
p_3_Harrison_Ford,3,   2.177
p_5_Peter_Cushing,3,   1.889
p_6_Anthony_Daniels,3,  -0.000
p_12_Alexander_Gould,3,  -0.000
p_13_Albert_Brooks,3,   2.138
p_14_Ellen_DeGeneres,3,   1.040
p_18_Brad_Garrett,3,   1.609
p_20_Elizabeth_Perkins,3,   1.386
p_22_Barry_Humphries,3,   0.693
p_33_Gary_Sinise,3,   1.834
p_35_Sally_Field,3,   1.970
p_62_Bruce_Willis,3,   2.212
p_63_Milla_Jovovich,3,   1.866
p_65_Ian_Holm,3,   1.906
p_66_Chris_Tucker,3,   1.332
p_85_Johnny_Depp,3,   2.397
p_98_Sarah_Polley,3,   1.889
p_100_Scott_Speedman,3,   1.889
p_103_Mark_Ruffalo,3,   1.735
p_114_Orlando_Bloom,3,   1.540
p_116_Keira_Knightley,3,   1.951
p_118_Geoffrey_Rush,3,   2.554
p_133_Peter_Sarsgaard,3,   2.058
p_134_Jamie_Foxx,3,   1.735
p_138_Quentin_Tarantino,3,  -0.000
p_141_David_Carradine,3,   1.040
p_147_Michael_Madsen,3,   1.894
p_150_RZA,3,  -0.000
p_155_Lucas_Black,3,   1.099
p_169_Hanns_Zischler,3,  -0.000
p_176_Kieran_O_Brien,3,  -0.000
p_177_Margo_Stilley,3,   0.693
p_192_Morgan_Freeman,3,   2.517
p_193_Gene_Hackman,3,   2.240
p_198_Dan_Castellaneta,3,   1.099
p_199_Julie_Kavner,3,   0.693
p_200_Nancy_Cartwright,3,   0.693
p_205_Kirsten_Dunst,3,   2.047
p_207_Tom_Wilkinson,3,   2.042
p_212_David_Cross,3,   2.146
p_227_William_Hurt,3,   2.668
p_228_Ed_Harris,3,   2.622
p_229_Peter_MacNeill,3,  -0.000
p_231_Greg_Bryk,3,  -0.000
p_232_Kyle_Schmid,3,  -0.000
p_245_Keir_Dullea,3,   1.099
p_249_Leonard_Rossiter,3,  -0.000
p_251_Robert_Beatty,3,   0.693
p_287_Brad_Pitt,3,   2.810
p_288_Jon_Seda,3,   0.693
p_289_Madeleine_Stowe,3,   2.043
p_290_Christopher_Plummer,3,   2.293
p_326_Kim_Basinger,3,   1.906
p_327_Mekhi_Phifer,3,   1.609
p_334_Omar_Benson_Miller,3,  -0.000
p_335_Michael_Shannon,3,   1.906
p_343_Taryn_Manning,3,   0.562
p_350_Laura_Linney,3,   2.119
p_378_Jonathan_Pryce,3,   1.475
p_380_Robert_De_Niro,3,   2.666
p_381_Katherine_Helmond,3,  -0.000
p_383_Michael_Palin,3,   1.099
p_388_Jim_Broadbent,3,   1.834
p_400_Geraldine_Chaplin,3,   1.099
p_404_Melora_Hardin,3,   1.099
p_408_James_Keach,3,  -0.000
p_424_Dallas_Roberts,3,   1.099
p_426_Larry_Bagby,3,  -0.000
p_429_Lucas_Till,3,   1.040
p_453_Riki_Lindhome,3,  -0.000
p_454_Michael_Pena,3,   1.906
p_480_Gary_Lewis,3,   0.693
p_500_Tom_Cruise,3,   2.673
p_501_Dakota_Fanning,3,   2.205
p_502_Miranda_Otto,3,   1.099
p_503_Justin_Chatwin,3,   1.332
p_504_Tim_Robbins,3,   2.389
p_521_Michael_J__Fox,3,   1.927
p_522_Rod_Steiger,3,   2.164
p_524_Natalie_Portman,3,   1.771
p_526_Lukas_Haas,3,   2.138
p_530_Carrie_Anne_Moss,3,   1.951
p_532_Joe_Pantoliano,3,   1.748
p_534_Mark_Boone_Junior,3,  -0.000
p_539_Thomas_Lennon,3,   0.637
p_540_Callum_Keith_Rennie,3,   1.099
p_585_Rutger_Hauer,3,   2.379
p_586_Sean_Young,3,   2.020
p_587_Edward_James_Olmos,3,   1.889
p_588_M__Emmet_Walsh,3,   1.386
p_590_William_Sanderson,3,  -0.000
p_591_Brion_James,3,   1.040
p_592_Joe_Turkel,3,   0.637
p_644_Blanchard_Ryan,3,  -0.000
p_646_Daniel_Travis,3,  -0.000
p_650_Karen_Allen,3,   1.561
p_652_Paul_Freeman,3,  -0.000
p_655_John_Rhys_Davies,3,   1.768
p_658_Alfred_Molina,3,   2.484
p_663_William_Hootkins,3,  -0.000
p_679_Franka_Potente,3,   1.099
p_689_Kate_Capshaw,3,   1.332
p_691_Amrish_Puri,3,  -0.000
p_693_Roshan_Seth,3,   0.693
p_707_Dan_Aykroyd,3,   2.487
p_742_Michael_Byrne,3,  -0.000
p_746_Alexei_Sayle,3,  -0.000
p_782_Steven_Berkoff,3,   0.562
p_783_Jonathan_Banks,3,  -0.000
p_786_Stephen_Elliott,3,  -0.000
p_819_Edward_Norton,3,   1.772
p_820_Edward_Furlong,3,   1.906
p_821_Beverly_D_Angelo,3,   0.637
p_824_Ethan_Suplee,3,  -0.000
p_825_Stacy_Keach,3,   2.272
p_826_Fairuza_Balk,3,   1.792
p_828_Guy_Torry,3,  -0.000
p_834_Otto_Preminger,3,  -0.000
p_854_James_Stewart,3,   2.399
p_855_Lee_Remick,3,   0.693
p_856_Ben_Gazzara,3,   1.099
p_857_Arthur_O_Connell,3,  -0.000
p_862_George_C__Scott,3,   1.906
p_863_Orson_Bean,3,  -0.000
p_879_Billy_Bob_Thornton,3,   2.302
p_880_Ben_Affleck,3,   2.107
p_883_Will_Patton,3,   1.330
p_884_Steve_Buscemi,3,   2.205
p_886_William_Fichtner,3,   1.906
p_887_Owen_Wilson,3,   1.820
p_920_Jurgen_Prochnow,3,   1.332
p_921_Brigitte_Nielsen,3,   1.040
p_923_Dean_Stockwell,3,  -0.000
p_934_Russell_Crowe,3,   2.098
p_935_Connie_Nielsen,3,   1.609
p_936_Oliver_Reed,3,   2.038
p_939_David_Schofield,3,  -0.000
p_941_Tomas_Arana,3,  -0.000
p_942_Ralf_Moeller,3,  -0.000
p_955_Penelope_Cruz,3,   1.936
p_975_Nick_Moran,3,  -0.000
p_976_Jason_Statham,3,   1.587
p_978_Steven_Mackintosh,3,   1.099
p_980_Vinnie_Jones,3,   0.974
p_984_Nicholas_Rowe,3,  -0.000
p_989_P_H__Moriarty,3,  -0.000
p_994_Stephen_Marcus,3,  -0.000
p_995_Vas_Blackwood,3,   0.693
p_1103_Bill_Duke,3,  -0.000
p_1116_Alan_Ford,3,  -0.000
p_1125_Ewen_Bremner,3,  -0.000
p_1162_Robert_Loggia,3,   1.792
p_1164_F__Murray_Abraham,3,   1.609
p_1165_Paul_Shenar,3,   0.693
p_1245_Scarlett_Johansson,3,   1.793
p_1246_Emily_Mortimer,3,   2.064
p_1247_Matthew_Goode,3,   0.562
p_1248_Brian_Cox,3,   2.307
p_1249_Penelope_Wilton,3,  -0.000
p_1271_Andy_Garcia,3,   2.244
p_1281_Freddie_Highmore,3,   1.311
p_1282_David_Kelly,3,  -0.000
p_1366_Sala_Baker,3,   1.099
p_1369_Bernard_Hill,3,  -0.000
p_1370_Brad_Dourif,3,   1.889
p_1371_David_Wenham,3,   1.475
p_1372_Karl_Urban,3,   1.332
p_1381_John_Noble,3,   1.099
p_1382_Paul_Norell,3,  -0.000
p_1430_Keith_Richards,3,   0.693
p_1534_Chris_Elliott,3,  -0.000
p_1535_Brian_Doyle_Murray,3,   1.099
p_1547_Bela_Lugosi,3,   1.730
p_1562_Iben_Hjejle,3,  -0.000
p_1578_Holmes_Osborne,3,  -0.000
p_1579_Maggie_Gyllenhaal,3,   1.494
p_1580_Daveigh_Chase,3,   1.040
p_1581_Mary_McDonnell,3,   1.386
p_1620_Michelle_Yeoh,3,   1.561
p_1624_Cheng_Pei_Pei,3,  -0.000
p_1639_Emily_Watson,3,   1.359
p_1640_Stellan_Skarsgard,3,   1.475
p_1645_Sandra_Voe,3,  -0.000
p_1646_Udo_Kier,3,   1.609
p_1653_Jean_Pierre_Leaud,3,  -0.000
p_1665_Eddie_Marsan,3,   1.040
p_1666_Julie_Christie,3,   1.792
p_1669_Dean_Lennox_Kelly,3,  -0.000
p_1734_Annette_O_Toole,3,   0.693
p_1771_Giovanni_Ribisi,3,   1.972
p_1793_Ricardo_Montalban,3,   1.332
p_1810_Heath_Ledger,3,   2.458
p_1811_Randy_Quaid,3,   2.649
p_1812_Michelle_Williams,3,   1.778
p_1813_Anne_Hathaway,3,   1.569
p_1817_Linda_Cardellini,3,   1.386
p_1833_Jamie_Sives,3,  -0.000
p_1834_Shirley_Henderson,3,   0.637
p_1844_Til_Schweiger,3,   1.099
p_1852_Jan_Josef_Liefers,3,  -0.000
p_1884_Steven_Soderbergh,3,  -0.000
p_1892_Matt_Damon,3,   2.346
p_1893_Casey_Affleck,3,   1.055
p_1894_Scott_Caan,3,   1.330
p_1895_Carl_Reiner,3,   0.693
p_1896_Don_Cheadle,3,   1.972
p_1903_Alan_Arkin,3,   2.351
p_1904_Anthony_Michael_Hall,3,   1.386
p_1907_Kathy_Baker,3,  -0.000
p_1920_Winona_Ryder,3,   1.822
p_1922_Catherine_Zeta_Jones,3,   2.032
p_1923_Robbie_Coltrane,3,   1.973
p_1924_Jeroen_Krabbe,3,   1.099
p_1926_Eddie_Izzard,3,   1.748
p_1930_Truman_Capote,3,  -0.000
p_1933_George_Peppard,3,   1.099
p_1934_Patricia_Neal,3,   0.693
p_1937_Mickey_Rooney,3,   1.494
p_1951_Elisabeth_Shue,3,   2.245
p_1954_Billy_Zane,3,   2.369
p_1956_Cherry_Jones,3,  -0.000
p_1977_Richard_Bohringer,3,  -0.000
p_1979_Kevin_Spacey,3,   2.245
p_1989_Celia_Weston,3,  -0.000
p_1990_Brian_Howe,3,  -0.000
p_2007_Lew_Ayres,3,  -0.000
p_2011_Ben_Alexander,3,  -0.000
p_2021_Jane_Wyatt,3,  -0.000
p_2022_Catherine_Hicks,3,   0.693
p_2038_Naomie_Harris,3,   1.561
p_2039_Brendan_Gleeson,3,   1.720
p_2047_Danny_Glover,3,   2.260
p_2048_Gary_Busey,3,   1.925
p_2055_Robert_Davi,3,   0.693
p_2059_Adam_Baldwin,3,   1.332
p_2091_James_Mason,3,   2.426
p_2094_Peter_Lorre,3,   2.176
p_2098_Carleton_Young,3,  -0.000
p_2109_Kim_Cattrall,3,   2.197
p_2112_Brock_Peters,3,   0.693
p_2115_Kurtwood_Smith,3,   1.040
p_2124_Iman,3,  -0.000
p_2133_Dina_Meyer,3,   1.332
p_2140_Monica_Potter,3,   1.748
p_2144_Tobin_Bell,3,   0.693
p_2154_Scott_Bakula,3,   0.693
p_2155_Thora_Birch,3,   1.834
p_2157_Robin_Williams,3,   2.422
p_2165_Rosanna_Arquette,3,   2.164
p_2171_Griffin_Dunne,3,   1.386
p_2176_Tommy_Lee_Jones,3,   2.350
p_2202_Steve_Harris,3,   0.693
p_2207_Lois_Smith,3,  -0.000
p_2246_Earl_Cameron,3,  -0.000
p_2251_Hugo_Speer,3,  -0.000
p_2282_Ben_Kingsley,3,   2.190
p_2293_Frank_Miller,3,   0.693
p_2295_Mickey_Rourke,3,   2.196
p_2405_Audrey_Tautou,3,   1.099
p_2453_Mary_Steenburgen,3,   2.359
p_2464_Angus_Macfadyen,3,   1.040
p_2493_Robert_Stack,3,   1.099
p_2518_Gregg_Henry,3,  -0.000
p_2525_Shannon_Cochran,3,  -0.000
p_2539_Julie_Dreyfus,3,  -0.000
p_2566_Charles_Vanel,3,  -0.000
p_2636_Alfred_Hitchcock,3,   0.849
p_2639_Eva_Marie_Saint,3,   1.099
p_2640_Jessie_Royce_Landis,3,   0.693
p_2642_Leo_G__Carroll,3,   0.637
p_2669_Raymond_Massey,3,  -0.000
p_2687_Lyriq_Bent,3,  -0.000
p_2698_Norman_Lloyd,3,  -0.000
p_2712_Michael_Biehn,3,   1.970
p_2719_Brian_Thompson,3,   0.693
p_2749_James_Dean,3,   1.099
p_2750_Julie_Harris,3,   1.099
p_2755_Albert_Dekker,3,  -0.000
p_2769_Natalie_Wood,3,   2.043
p_2770_Sal_Mineo,3,   1.099
p_2771_Jim_Backus,3,  -0.000
p_2778_Dennis_Hopper,3,   1.494
p_2887_Tom_Waits,3,   1.099
p_2895_Emil_Jannings,3,  -0.000
p_2926_Elsa_Lanchester,3,  -0.000
p_2959_Kayvan_Novak,3,  -0.000
p_2977_Jamey_Sheridan,3,   0.693
p_2978_Max_Minghella,3,   0.693
p_3019_Olympia_Dukakis,3,   0.693
p_3033_Wil_Wheaton,3,   1.386
p_3034_Corey_Feldman,3,   1.561
p_3035_Jerry_O_Connell,3,   1.427
p_3036_John_Cusack,3,   2.368
p_3051_Toni_Collette,3,   1.428
p_3052_Rachel_Griffiths,3,   1.040
p_3061_Ewan_McGregor,3,   2.300
p_3063_Tilda_Swinton,3,   2.211
p_3064_Peter_Mullan,3,   2.079
p_3072_Daniel_Lapaine,3,  -0.000
p_3084_Marlon_Brando,3,   2.510
p_3085_James_Caan,3,   2.425
p_3087_Robert_Duvall,3,   2.563
p_3088_Sterling_Hayden,3,   1.332
p_3090_Richard_Conte,3,  -0.000
p_3092_Diane_Keaton,3,   1.968
p_3093_Abe_Vigoda,3,  -0.000
p_3122_Sammi_Davis,3,  -0.000
p_3125_Madonna,3,   0.637
p_3126_Ione_Skye,3,  -0.000
p_3127_Lili_Taylor,3,   1.215
p_3131_Antonio_Banderas,3,   1.638
p_3162_Billy_Gray,3,  -0.000
p_3172_Michael_V__Gazzo,3,  -0.000
p_3201_Pruitt_Taylor_Vince,3,   0.637
p_3288_Chris_Weitz,3,  -0.000
p_3291_Hugh_Grant,3,   1.397
p_3293_Rachel_Weisz,3,   2.449
p_3309_Augustus_Prew,3,  -0.000
p_3489_Naomi_Watts,3,   2.232
p_3542_Barney_Clark,3,  -0.000
p_3543_Jamie_Foreman,3,   0.693
p_3547_Ian_McNeice,3,   0.693
p_3635_Elizabeth_Taylor,3,   1.772
p_4012_Spencer_Treat_Clark,3,   1.561
p_4154_Brenda_Blethyn,3,   0.950
p_4169_Dave_Chappelle,3,   1.386
p_4174_Claire_Forlani,3,   1.581
p_4175_Jeffrey_Tambor,3,   1.906
p_4244_Lauryn_Hill,3,  -0.000
p_4252_Tony_Shalhoub,3,   1.609
p_4253_Jon_Polito,3,   1.099
p_4347_Frank_Sinatra,3,   1.040
p_4441_Pell_James,3,  -0.000
p_4442_Ryan_Donowho,3,  -0.000
p_4512_James_Woods,3,   2.431
p_4513_Elizabeth_McGovern,3,   1.099
p_4515_Treat_Williams,3,   1.946
p_4517_Joe_Pesci,3,   2.274
p_4520_William_Forsythe,3,  -0.000
p_4566_Alan_Rickman,3,   2.205
p_4587_Halle_Berry,3,   2.441
p_4688_Michael_Rapaport,3,   2.098
p_4786_Richard_Attenborough,3,   1.040
p_4787_Joseph_Mazzello,3,   1.792
p_4808_Giancarlo_Esposito,3,   0.637
p_4886_Norman_Reedus,3,   1.560
p_4889_Kim_Director,3,  -0.000
p_4938_Vanessa_Lee_Chester,3,   0.693
p_4939_Tea_Leoni,3,   0.868
p_4940_Trevor_Morgan,3,   0.693
p_4942_John_Diehl,3,  -0.000
p_4944_Taylor_Nichols,3,  -0.000
p_4958_Henry_Fonda,3,   1.792
p_4959_Claudia_Cardinale,3,  -0.000
p_4960_Charles_Bronson,3,   1.040
p_4970_Ruth_Gordon,3,  -0.000
p_4995_James_Shigeta,3,  -0.000
p_5064_Meryl_Streep,3,   2.337
p_5176_Sam_McMurray,3,   0.693
p_5177_Randall__Tex__Cobb,3,  -0.000
p_5247_John_Fiedler,3,  -0.000
p_5255_Robert_Webber,3,   0.693
p_5460_Adriana_Caselotti,3,  -0.000
p_5470_Kristin_Scott_Thomas,3,   0.849
p_5471_Naveen_Andrews,3,   0.693
p_5503_Gabrielle_Anwar,3,   1.561
p_5698_Jessica_Tandy,3,   1.561
p_5723_John_Leguizamo,3,   2.221
p_5726_Cedric_the_Entertainer,3,   1.332
p_5825_David_Tomlinson,3,  -0.000
p_5833_Ed_Wynn,3,  -0.000
p_5915_Jaime_King,3,   1.332
p_5916_Rosario_Dawson,3,   2.084
p_5922_David_Huband,3,  -0.000
p_5925_Joshua_Peace,3,  -0.000
p_5937_Kari_Matchett,3,  -0.000
p_5960_Mary_Kay_Place,3,  -0.000
p_5961_Anita_Ekberg,3,   0.693
p_6016_Walid_Afkir,3,  -0.000
p_6068_Sela_Ward,3,   0.693
p_6069_Austin_Nichols,3,   1.099
p_6106_Steven_Weber,3,   0.693
p_6110_Graham_Beckel,3,   0.693
p_6278_Devon_Aoki,3,  -0.000
p_6279_Alexis_Bledel,3,   0.410
p_6280_Powers_Boothe,3,   1.040
p_6283_Michael_Nyqvist,3,   0.693
p_6396_Richard_Edson,3,   0.693
p_6463_Dub_Taylor,3,  -0.000
p_6473_Kelly_Lynch,3,   1.748
p_6474_James_Le_Gros,3,  -0.000
p_6575_Gil_Bellows,3,  -0.000
p_6591_Chris_Isaak,3,  -0.000
p_6609_Theodore_Bikel,3,  -0.000
p_6610_Walter_Gotell,3,  -0.000
p_6637_Frank_Finlay,3,   0.693
p_6639_Emilia_Fox,3,   0.693
p_6715_Dana_Ashbrook,3,  -0.000
p_6844_Dom_DeLuise,3,   1.839
p_6933_Alan_Napier,3,   0.693
p_6949_John_Malkovich,3,   2.393
p_6968_Hugh_Jackman,3,   2.342
p_6970_Christopher_Fulford,3,  -0.000
p_6972_Ian_McShane,3,   1.359
p_7090_Kelsey_Grammer,3,   2.020
p_7301_Anthony_Perkins,3,   2.303
p_7303_Vera_Miles,3,  -0.000
p_7304_John_Gavin,3,   1.099
p_7351_Ana_Claudia_Talancon,3,   0.693
p_7504_Carol_Lynley,3,  -0.000
p_7517_Kate_Bosworth,3,   1.561
p_7520_Jeanette_Nolan,3,   0.693
p_8289_Billy_Crudup,3,   1.748
p_8291_Alison_Lohman,3,   0.950
p_8293_Marion_Cotillard,3,   1.550
p_8316_Michael_McShane,3,   0.693
p_8319_Nick_Brimble,3,  -0.000
p_8326_Geraldine_McEwan,3,   0.693
p_8338_Jodelle_Ferland,3,   0.500
p_8349_Martin_Sheen,3,   2.187
p_8434_Cindy_Williams,3,  -0.000
p_8435_Stephen_Dillane,3,   1.099
p_8443_Linda_Bassett,3,  -0.000
p_8447_Jeff_Daniels,3,   1.666
p_8487_Gregory_Peck,3,   1.696
p_8488_Mary_Badham,3,  -0.000
p_8536_Victor_Garber,3,   1.609
p_8545_Bernard_Fox,3,  -0.000
p_8555_Carl_Gottlieb,3,  -0.000
p_8656_Dorian_Harewood,3,  -0.000
p_8688_Diego_Luna,3,   1.792
p_8691_Zoe_Saldana,3,   0.950
p_8693_Jude_Ciccolella,3,  -0.000
p_8696_Rini_Bell,3,  -0.000
p_8699_Michael_Nouri,3,   0.693
p_8851_Whitney_Houston,3,   1.099
p_8854_Bill_Cobbs,3,   1.792
p_8872_Rick_Moranis,3,   2.095
p_8873_Annie_Potts,3,  -0.000
p_8874_Ernie_Hudson,3,   0.693
p_8926_Barbara_Jefford,3,  -0.000
p_8944_Jamie_Lee_Curtis,3,   1.885
p_8963_Karen_Black,3,  -0.000
p_8975_Sam_Waterston,3,   1.099
p_8977_Craig_T__Nelson,3,   1.494
p_8984_Bill_Pullman,3,   2.315
p_8986_James_Rebhorn,3,   1.332
p_8987_Lisa_Jakub,3,  -0.000
p_9012_Jonny_Lee_Miller,3,   1.792
p_9013_Kevin_McKidd,3,   1.561
p_9029_Stephen_Rea,3,   1.735
p_9030_Thandie_Newton,3,   1.498
p_9066_Judy_Garland,3,   1.099
p_9067_Frank_Morgan,3,   0.693
p_9070_Jack_Haley,3,  -0.000
p_9072_Margaret_Hamilton,3,   0.693
p_9208_Robert_Wagner,3,   2.146
p_9257_Bruno_Kirby,3,   1.040
p_9260_Michelle_Nicastro,3,   0.693
p_9273_Amy_Adams,3,   1.498
p_9278_Jennifer_Garner,3,   1.427
p_9280_Ellen_Pompeo,3,  -0.000
p_9281_Elizabeth_Banks,3,   1.352
p_9287_Robert_Blake,3,   1.609
p_9289_Michael_Massee,3,   0.693
p_9290_Henry_Rollins,3,  -0.000
p_9292_Mink_Stole,3,   1.040
p_9296_Balthazar_Getty,3,   0.693
p_9364_Gloria_Foster,3,  -0.000
p_9452_Daniel_Bernhardt,3,  -0.000
p_9464_Harry_Lennix,3,  -0.000
p_9560_Ellen_Burstyn,3,   1.748
p_9562_Marlon_Wayans,3,   2.303
p_9594_Katharine_Ross,3,   1.889
p_9599_Cloris_Leachman,3,   2.043
p_9601_Kenneth_Mars,3,   1.099
p_9625_Linda_Fiorentino,3,   1.792
p_9626_Rip_Torn,3,   2.095
p_9631_Carel_Struycken,3,  -0.000
p_9640_Haley_Joel_Osment,3,   1.330
p_9641_Jake_Thomas,3,   0.693
p_9642_Jude_Law,3,   2.346
p_9656_Johnny_Knoxville,3,   1.040
p_9717_Masachika_Ichimura,3,  -0.000
p_9746_Michel_Auclair,3,  -0.000
p_9777_Cuba_Gooding_Jr_,3,   1.889
p_9778_Ice_Cube,3,   1.972
p_9779_Morris_Chestnut,3,   1.748
p_9781_Nia_Long,3,   0.950
p_9782_Tyra_Ferrell,3,  -0.000
p_9788_Regina_King,3,   1.550
p_9824_Diane_Kruger,3,   1.733
p_9825_Saffron_Burrows,3,   1.748
p_9827_Rose_Byrne,3,   1.733
p_9829_Jacob_Smith,3,  -0.000
p_9871_Ursula_Andress,3,   0.693
p_9872_Joseph_Wiseman,3,  -0.000
p_9873_Jack_Lord,3,   0.693
p_9874_Bernard_Lee,3,  -0.000
p_9880_Sam_Shepard,3,   1.906
p_9896_Daniela_Bianchi,3,  -0.000
p_9907_Honor_Blackman,3,   0.693
p_9908_Gert_Frobe,3,  -0.000
p_9909_Shirley_Eaton,3,   0.637
p_9920_Adolfo_Celi,3,  -0.000
p_9921_Luciana_Paluzzi,3,  -0.000
p_9923_Guy_Doleman,3,  -0.000
p_9924_Molly_Peters,3,  -0.000
p_9976_Henry_Thomas,3,   1.099
p_9978_Robert_MacNaughton,3,  -0.000
p_9994_Helen_Hunt,3,   1.925
p_9995_Jami_Gertz,3,   1.609
p_9998_Joey_Slotnick,3,   0.693
p_10017_Charlton_Heston,3,   2.306
p_10019_Haya_Harareet,3,  -0.000
p_10020_Stephen_Boyd,3,  -0.000
p_10021_Hugh_Griffith,3,  -0.000
p_10022_Martha_Scott,3,  -0.000
p_10024_Sam_Jaffe,3,   0.637
p_10027_Finlay_Currie,3,   0.693
p_10029_Andre_Morell,3,   0.693
p_10068_Akiko_Wakabayashi,3,  -0.000
p_10071_Tetsuro_Tamba,3,  -0.000
p_10072_Teru_Shimada,3,  -0.000
p_10073_Karin_Dor,3,  -0.000
p_10074_Charles_Gray,3,  -0.000
p_10083_Beatrice_Straight,3,  -0.000
p_10085_Oliver_Robins,3,  -0.000
p_10090_Richard_Lawson,3,  -0.000
p_10127_Jon_Voight,3,   2.352
p_10128_William_Lee_Scott,3,   1.099
p_10130_Catherine_Kellner,3,  -0.000
p_10132_Colm_Feore,3,   1.099
p_10134_Mako,3,  -0.000
p_10135_Jesse_James,3,   0.693
p_10158_Robert_Mitchum,3,   2.290
p_10159_Jane_Greer,3,  -0.000
p_10160_Rhonda_Fleming,3,   0.693
p_10161_Richard_Webb,3,  -0.000
p_10162_Steve_Brodie,3,  -0.000
p_10165_Dickie_Moore,3,  -0.000
p_10168_Diana_Rigg,3,   1.040
p_10169_Telly_Savalas,3,   1.149
p_10190_Jill_St__John,3,   0.693
p_10191_Lana_Wood,3,  -0.000
p_10192_Jimmy_Dean,3,  -0.000
p_10205_Sigourney_Weaver,3,   2.494
p_10207_William_Hope,3,  -0.000
p_10210_Daniel_Kash,3,  -0.000
p_10222_Roger_Moore,3,   1.887
p_10223_Jane_Seymour,3,   1.099
p_10225_Geoffrey_Holder,3,  -0.000
p_10227_Gloria_Hendry,3,  -0.000
p_10297_Matthew_McConaughey,3,   2.372
p_10341_Britt_Ekland,3,   0.693
p_10342_Maud_Adams,3,   0.637
p_10344_Richard_Loo,3,  -0.000
p_10345_Soon_Tek_Oh,3,  -0.000
p_10360_Robert_Prosky,3,  -0.000
p_10361_Raymond_J__Barry,3,  -0.000
p_10362_Roberta_Maxwell,3,  -0.000
p_10371_Mary_Vivian_Pearce,3,  -0.000
p_10399_Teri_Polo,3,   1.099
p_10400_Barbra_Streisand,3,   0.600
p_10402_Alanna_Ubach,3,  -0.000
p_10403_Shelley_Berman,3,   0.693
p_10409_Shelley_Duvall,3,   1.792
p_10411_Barry_Nelson,3,  -0.000
p_10427_Anne_Archer,3,   1.386
p_10431_Jennifer_Jason_Leigh,3,   2.335
p_10437_Lily_Tomlin,3,   1.768
p_10447_Mariel_Hemingway,3,   0.693
p_10462_Geoffrey_Keen,3,  -0.000
p_10475_Lois_Chiles,3,   0.693
p_10477_George_Dzundza,3,  -0.000
p_10478_Jeanne_Tripplehorn,3,   1.550
p_10486_Chelcie_Ross,3,   1.040
p_10501_Chaim_Topol,3,   0.693
p_10503_Cassandra_Harris,3,  -0.000
p_10510_Kabir_Bedi,3,   0.693
p_10538_Vivien_Leigh,3,   0.693
p_10539_Kim_Hunter,3,   0.637
p_10557_Paul_Simon,3,  -0.000
p_10559_Colleen_Dewhurst,3,  -0.000
p_10581_Rich_Sommer,3,  -0.000
p_10594_Ringo_Starr,3,   0.693
p_10606_Anne_Baxter,3,  -0.000
p_10608_Gary_Merrill,3,   0.693
p_10609_Hugh_Marlowe,3,  -0.000
p_10652_Suzanna_Hamilton,3,  -0.000
p_10653_Rachel_Kempson,3,  -0.000
p_10655_Leslie_Phillips,3,   0.693
p_10660_Tanya_Roberts,3,   0.693
p_10661_Grace_Jones,3,   0.693
p_10663_Fiona_Fullerton,3,  -0.000
p_10669_Timothy_Dalton,3,   1.332
p_10670_Maryam_d_Abo,3,  -0.000
p_10671_Joe_Don_Baker,3,   0.693
p_10673_Andreas_Wisniewski,3,  -0.000
p_10679_Carey_Lowell,3,  -0.000
p_10680_Talisa_Soto,3,   0.693
p_10681_Wayne_Newton,3,  -0.000
p_10690_Anna_Paquin,3,   1.586
p_10692_Michael_Pitt,3,   1.561
p_10694_Glenn_Fitzgerald,3,  -0.000
p_10696_Famke_Janssen,3,   1.979
p_10697_Alan_Cumming,3,   2.164
p_10707_Terry_Jones,3,  -0.000
p_10726_James_Fleet,3,   0.693
p_10727_John_Hannah,3,   1.099
p_10730_Rowan_Atkinson,3,   1.550
p_10731_Anna_Chancellor,3,  -0.000
p_10739_Bebe_Neuwirth,3,   1.561
p_10742_Teri_Hatcher,3,   1.792
p_10743_Ricky_Jay,3,  -0.000
p_10744_Gotz_Otto,3,   0.693
p_10748_Terence_Rigby,3,  -0.000
p_10768_Rachel_Ticotin,3,   1.386
p_10774_Anne_Bancroft,3,   1.386
p_10776_Elizabeth_Wilson,3,  -0.000
p_10779_David_Calder,3,  -0.000
p_10800_Harpo_Marx,3,  -0.000
p_10822_Stephen_Dorff,3,   1.909
p_10823_Kris_Kristofferson,3,   1.099
p_10824_N_Bushe_Wright,3,  -0.000
p_10839_Leonor_Varela,3,   0.693
p_10843_Luke_Goss,3,   0.637
p_10859_Ryan_Reynolds,3,   1.891
p_10860_Jessica_Biel,3,   1.519
p_10862_Dominic_Purcell,3,   1.332
p_10871_Natasha_Lyonne,3,   1.792
p_10872_Patton_Oswalt,3,   0.693
p_10882_Rosamund_Pike,3,   1.550
p_10885_Kenneth_Tsang,3,  -0.000
p_10912_Eva_Green,3,   1.609
p_10916_Caterina_Murino,3,  -0.000
p_10917_Simon_Abkarian,3,   0.693
p_10921_Charles_Laughton,3,   1.386
p_10922_Tyrone_Power,3,   2.164
p_10938_Barbara_Carrera,3,   1.099
p_10942_Pat_Roach,3,  -0.000
p_10978_Maggie_Smith,3,   1.906
p_10981_Fiona_Shaw,3,   1.099
p_10985_Ian_Hart,3,  -0.000
p_10987_Verne_Troyer,3,   1.099
p_10988_Geraldine_Somerville,3,  -0.000
p_10989_Rupert_Grint,3,   1.386
p_10990_Emma_Watson,3,   1.427
p_10991_Bonnie_Wright,3,  -0.000
p_11006_James_Marsden,3,   2.119
p_11007_Ray_Park,3,   0.693
p_11008_Rebecca_Romijn,3,  -0.000
p_11022_Aaron_Stanford,3,   0.693
p_11023_Shawn_Ashmore,3,   1.748
p_11024_Kelly_Hu,3,   1.386
p_11025_Agnes_Moorehead,3,  -0.000
p_11026_Ruth_Warrick,3,  -0.000
p_11064_David_Strathairn,3,   1.906
p_11065_Wilford_Brimley,3,   1.946
p_11066_Hal_Holbrook,3,   1.561
p_11068_Karina_Lombard,3,  -0.000
p_11074_Kathy_Najimy,3,  -0.000
p_11076_David_Hyde_Pierce,3,   1.332
p_11085_Anthony_Edwards,3,   1.386
p_11086_Michael_Ironside,3,   1.099
p_11107_Ben_Foster,3,   2.369
p_11109_Nick_Frost,3,   1.609
p_11115_Peter_Serafinowicz,3,   0.693
p_11127_Margaret_Rutherford,3,   1.332
p_11128_Arthur_Kennedy,3,  -0.000
p_11131_Thorley_Walters,3,  -0.000
p_11132_Charles_Tingwell,3,  -0.000
p_11155_Thomas_Jane,3,   2.254
p_11159_Cheech_Marin,3,   1.735
p_11164_Kelly_Preston,3,   1.677
p_11165_Jane_Russell,3,   1.332
p_11169_Charles_Coburn,3,  -0.000
p_11172_Taylor_Holmes,3,  -0.000
p_11184_Warwick_Davis,3,   1.255
p_11317_Natascha_McElhone,3,   1.560
p_11355_Jason_Isaacs,3,   0.868
p_11356_Imelda_Staunton,3,   1.561
p_11357_Bruce_Campbell,3,   2.146
p_11365_Mark_Feuerstein,3,   0.693
p_11395_Victor_Wong,3,   1.099
p_11397_Ric_Young,3,   0.637
p_11398_Cary_Hiroyuki_Tagawa,3,   1.099
p_11478_Lorraine_Bracco,3,   1.386
p_11496_George_Reeves,3,   0.693
p_11498_Hattie_McDaniel,3,  -0.000
p_11510_Macaulay_Culkin,3,   1.906
p_11511_Daniel_Stern,3,   1.099
p_11516_Devin_Ratray,3,  -0.000
p_11544_Jean_Gabin,3,  -0.000
p_11614_M__Night_Shyamalan,3,  -0.000
p_11616_Olivia_Williams,3,   1.550
p_11617_Mischa_Barton,3,   1.273
p_11661_Kate_Hudson,3,   1.352
p_11663_Patrick_Fugit,3,  -0.000
p_11665_Michael_Angarano,3,   1.951
p_11671_Bijou_Phillips,3,   0.950
p_11678_Rainn_Wilson,3,   1.099
p_11701_Angelina_Jolie,3,   2.008
p_11702_Adam_Brody,3,   1.099
p_11703_Kerry_Washington,3,   1.494
p_11705_Michelle_Monaghan,3,   1.831
p_11804_Duane_Whitaker,3,  -0.000
p_11806_Julia_Sweeney,3,  -0.000
p_11824_Tom_Welling,3,   0.693
p_11825_Maggie_Grace,3,   1.332
p_11826_Selma_Blair,3,   1.154
p_11842_Tommy_Duggan,3,  -0.000
p_11844_Holly_Palance,3,  -0.000
p_11850_Candice_Bergen,3,   1.494
p_11851_Om_Puri,3,   0.693
p_11852_Saeed_Jaffrey,3,   0.693
p_11855_Geraldine_James,3,   0.693
p_11856_Daniel_Day_Lewis,3,   1.277
p_11857_John_Gielgud,3,   1.386
p_11859_John_Mills,3,   1.099
p_11861_Dalip_Tahil,3,  -0.000
p_11863_Sarah_Michelle_Gellar,3,   1.772
p_11864_Ryan_Phillippe,3,   1.973
p_11866_Joshua_Jackson,3,   1.972
p_11867_Eric_Mabius,3,   1.332
p_11868_Sean_Patrick_Thomas,3,   0.693
p_11870_Christine_Baranski,3,   1.475
p_11889_Mark_Moses,3,  -0.000
p_11901_Dennis_Franz,3,   0.637
p_11902_Robin_Bartlett,3,  -0.000
p_12094_Jennifer_Saunders,3,   0.693
p_12110_Amy_Sedaris,3,   0.693
p_12121_Cliff_Potts,3,  -0.000
p_12122_Ron_Rifkin,3,   1.099
p_12133_Laurie_Metcalf,3,   1.099
p_12139_Lolita_Davidovich,3,   0.693
p_12149_Richard_Widmark,3,   1.099
p_12150_Maximilian_Schell,3,   1.040
p_12151_Montgomery_Clift,3,   1.609
p_12158_Karl_Swenson,3,  -0.000
p_12219_Jon_Stewart,3,   1.386
p_12251_Geoffrey_Horne,3,  -0.000
p_12261_Jason_Patric,3,   1.889
p_12309_Anne_Francis,3,  -0.000
p_12407_Candy_Clark,3,   0.693
p_12498_Ruth_Roman,3,  -0.000
p_12505_Kasey_Rogers,3,  -0.000
p_12516_Linda_Hunt,3,   1.386
p_12518_Richard_Jordan,3,  -0.000
p_12519_Virginia_Madsen,3,   1.748
p_12521_Kenneth_McMillan,3,  -0.000
p_12536_Jack_Thompson,3,  -0.000
p_12538_Nick_Searcy,3,   1.099
p_12543_Eileen_Ryan,3,   0.693
p_12645_Jeffrey_DeMunn,3,   0.693
p_12647_Armin_Mueller_Stahl,3,   0.562
p_12656_Joanne_Whalley,3,   1.561
p_12657_Jean_Marsh,3,  -0.000
p_12658_Patricia_Hayes,3,  -0.000
p_12660_Gavin_O_Herlihy,3,   0.693
p_12662_Phil_Fondacaro,3,  -0.000
p_12689_Ralph_Richardson,3,   0.637
p_12708_Peter_Billingsley,3,  -0.000
p_12710_Scott_Schwartz,3,  -0.000
p_12714_Zack_Ward,3,   1.099
p_12718_Noel_Coward,3,  -0.000
p_12763_Joseph_Fiennes,3,   2.043
p_12791_Hugh_Dancy,3,   1.241
p_12793_Matthew_Marsden,3,  -0.000
p_12795_Nikolaj_Coster_Waldau,3,  -0.000
p_12834_Barry_Pepper,3,   1.906
p_12900_Wallace_Shawn,3,   1.386
p_12901_Erik_von_Detten,3,   0.693
p_13014_Toby_Jones,3,   1.561
p_13022_Tom_Berenger,3,   1.386
p_13023_Colleen_Camp,3,  -0.000
p_13241_Estella_Warren,3,  -0.000
p_13243_Glenn_Shadix,3,  -0.000
p_13260_Linda_Harrison,3,  -0.000
p_13333_Vanessa_Redgrave,3,   1.845
p_13341_Anna_May_Wong,3,  -0.000
p_13363_Saskia_Reeves,3,  -0.000
p_13364_Julie_Cox,3,   0.693
p_13389_Charlie_Korsmo,3,  -0.000
p_13446_Eliza_Dushku,3,   1.352
p_13474_Richard_O_Brien,3,   1.386
p_13476_Nell_Campbell,3,  -0.000
p_13477_Jonathan_Adams,3,  -0.000
p_13524_Christopher_Guest,3,   0.693
p_13525_Matt_Craven,3,   1.386
p_13526_Noah_Wyle,3,   1.040
p_13548_James_Spader,3,   2.106
p_13549_Deborah_Kara_Unger,3,   1.561
p_13550_Elias_Koteas,3,   2.023
p_13567_Ann_Margret,3,   1.386
p_13576_Fredric_March,3,   1.561
p_13633_Mark_Addy,3,   0.950
p_13635_Kristen_Johnston,3,  -0.000
p_13636_Jane_Krakowski,3,   1.055
p_13640_Harvey_Korman,3,   0.637
p_13784_Burt_Lancaster,3,   2.356
p_13785_Betty_Field,3,  -0.000
p_13816_May_Robson,3,  -0.000
p_13819_Walter_Catlett,3,  -0.000
p_13848_Charlie_Chaplin,3,  -0.000
p_13919_Michael_York,3,   1.733
p_13920_Mimi_Rogers,3,   1.831
p_13922_Seth_Green,3,   1.906
p_13923_Fabiana_Udenio,3,   0.693
p_13936_Frankie_Faison,3,  -0.000
p_13939_Ritchie_Coster,3,  -0.000
p_13946_Paul_Burke,3,  -0.000
p_13950_Gordon_Pinsent,3,  -0.000
p_13963_Una_Merkel,3,  -0.000
p_13969_Russell_Hicks,3,  -0.000
p_13975_Martha_Vickers,3,   0.693
p_13979_Louis_Jean_Heydt,3,  -0.000
p_13995_Tom_Drake,3,  -0.000
p_13997_June_Lockhart,3,  -0.000
p_14011_Tom_Courtenay,3,   0.693
p_14061_Jacqueline_Bisset,3,   1.550
p_14062_Don_Gordon,3,  -0.000
p_14103_Mark_Blum,3,  -0.000
p_14105_Stephanie_Faracy,3,  -0.000
p_14262_Capucine,3,  -0.000
p_14313_Darlene_Love,3,  -0.000
p_14317_Ebonie_Smith,3,  -0.000
p_14326_Patsy_Kensit,3,  -0.000
p_14359_Art_Smith,3,  -0.000
p_14405_Courteney_Cox,3,   2.043
p_14406_Lisa_Kudrow,3,   0.410
p_14409_David_Schwimmer,3,   1.561
p_14452_Jerome_Cowan,3,  -0.000
p_14463_David_Naughton,3,  -0.000
p_14464_Jenny_Agutter,3,   1.561
p_14533_Vladimir_Sokoloff,3,  -0.000
p_14541_Chris_Sarandon,3,   1.609
p_14542_James_Broderick,3,  -0.000
p_14564_George_Macready,3,   1.099
p_14565_Wayne_Morris,3,  -0.000
p_14595_Duncan_Fraser,3,  -0.000
p_14683_Ruth_Hussey,3,  -0.000
p_14698_Penelope_Ann_Miller,3,   2.043
p_14729_Laurence_Harvey,3,   0.693
p_14784_Reni_Santoni,3,  -0.000
p_14830_Vincent_Gardenia,3,  -0.000
p_14831_David_Wayne,3,  -0.000
p_14833_Harold_Gould,3,   1.099
p_14837_Carol_Burnett,3,  -0.000
p_14868_Robert_Young,3,   0.693
p_14882_Jackie_Gleason,3,   1.609
p_14886_Craig_Bierko,3,   0.693
p_14887_Paddy_Considine,3,   1.332
p_14892_Rosemarie_DeWitt,3,   0.693
p_14905_Chuck_Shamata,3,  -0.000
p_14911_Penny_Marshall,3,  -0.000
p_15008_Ann_Miller,3,  -0.000
p_15011_Brent_Briscoe,3,  -0.000
p_15030_Robin_Sachs,3,  -0.000
p_15070_Ken_Foree,3,  -0.000
p_15098_June_Foray,3,  -0.000
p_15122_Sophie_Rois,3,  -0.000
p_15196_David_Hemmings,3,   0.637
p_15213_John_P__Ryan,3,  -0.000
p_15250_Hope_Davis,3,   1.748
p_15251_Robert_Gossett,3,  -0.000
p_15276_Angela_Featherstone,3,  -0.000
p_15374_Leon_Rippy,3,  -0.000
p_15413_Richard_Dysart,3,  -0.000
p_15414_Charles_Hallahan,3,   0.693
p_15417_Donald_Moffat,3,  -0.000
p_15418_Joel_Polis,3,  -0.000
p_15423_Paget_Brewster,3,   0.693
p_15497_Padraic_Delaney,3,   0.693
p_15501_William_Ruane,3,  -0.000
p_15503_Kyle_Richards,3,   0.637
p_15531_Ossie_Davis,3,   1.609
p_15534_Paul_Benjamin,3,  -0.000
p_15543_Derek_Luke,3,   2.079
p_15555_Piper_Perabo,3,   0.868
p_15556_Rebecca_Hall,3,   1.792
p_15566_Sharon_Leal,3,  -0.000
p_15577_Emily_Barclay,3,  -0.000
p_15655_Kim_Darby,3,   0.693
p_15659_Marianna_Hill,3,   0.693
p_15661_Clint_Howard,3,   1.099
p_15674_Hallie_Kate_Eisenberg,3,   0.693
p_15675_Alison_Elliott,3,  -0.000
p_15676_Arnold_Moss,3,  -0.000
p_15739_Alex_Jennings,3,   0.693
p_15762_Tara_Strong,3,   0.693
p_15765_John_Colicos,3,  -0.000
p_15788_Nigel_Hawthorne,3,   1.561
p_15789_Alex_D__Linz,3,   1.748
p_15854_Ted_Levine,3,   1.099
p_15899_Jenifer_Lewis,3,  -0.000
p_16052_Jack_Donner,3,  -0.000
p_16103_Keye_Luke,3,   0.693
p_16119_Charles_Napier,3,   0.693
p_16146_Saemi_Nakamura,3,  -0.000
p_16148_Rebecca_Forstadt,3,  -0.000
p_16171_Phoebe_Cates,3,   1.099
p_16173_Belinda_Balaski,3,  -0.000
p_16197_Ann_Dusenberry,3,  -0.000
p_16200_Susan_French,3,  -0.000
p_16214_Mario_Van_Peebles,3,  -0.000
p_16216_Judith_Barsi,3,   0.693
p_16239_Erika_Marozsan,3,  -0.000
p_16270_Christopher_Guard,3,  -0.000
p_16271_William_Squire,3,  -0.000
p_16274_Dominic_Guard,3,  -0.000
p_16275_Norman_Bird,3,  -0.000
p_16307_Maura_Tierney,3,   1.386
p_16327_Timothy_Hutton,3,   2.342
p_16358_Simon_McBurney,3,  -0.000
p_16406_Patricia_Reyes_Spindola,3,  -0.000
p_16420_Richard_Boone,3,   1.330
p_16433_James_Gammon,3,  -0.000
p_16450_Sean_Combs,3,   0.693
p_16523_Burgess_Meredith,3,   1.040
p_16560_David_Caruso,3,   1.906
p_16619_Mr__T,3,   0.693
p_16620_Hulk_Hogan,3,   1.332
p_16761_Eduardo_Ciannelli,3,  -0.000
p_16839_Matt_Long,3,  -0.000
p_16846_Harland_Williams,3,   0.693
p_16847_Eli_Roth,3,  -0.000
p_16850_Rose_McGowan,3,   1.494
p_16857_Tom_Everett_Scott,3,   0.637
p_16858_Lauren_Graham,3,   0.693
p_16866_Jennifer_Lopez,3,   1.899
p_16962_Jang_Dong_gun,3,   0.693
p_17005_Doug_Jones,3,   1.040
p_17006_Ariadna_Gil,3,  -0.000
p_17140_Abigail_Breslin,3,   1.494
p_17141_Greg_Kinnear,3,   1.866
p_17181_Ty_Simpkins,3,  -0.000
p_17236_A_J__Cook,3,   0.693
p_17244_Hayden_Christensen,3,   1.561
p_17245_Ben_McKenzie,3,  -0.000
p_17276_Gerard_Butler,3,   2.523
p_17286_Lena_Headey,3,   1.561
p_17287_Dominic_West,3,   1.889
p_17303_Ali_Larter,3,   1.677
p_17306_Zachary_Quinto,3,   0.693
p_17346_Robin_Tunney,3,   1.332
p_17347_Marshall_Allman,3,  -0.000
p_17352_Marianne_Jean_Baptiste,3,  -0.000
p_17403_Mike_Judge,3,   0.693
p_17487_John_Gallagher_Jr_,3,  -0.000
p_17578_Sami_Frey,3,  -0.000
p_17604_Jeremy_Renner,3,   1.332
p_17606_Imogen_Poots,3,   1.332
p_17628_Mary_Elizabeth_Winstead,3,   1.733
p_17696_Kathryn_Hahn,3,   0.693
p_17736_Adam_Pascal,3,  -0.000
p_17770_Kevin_Tighe,3,  -0.000
p_17832_Carla_Gugino,3,   1.972
p_17834_Jake_Cherry,3,   0.693
p_17835_Ricky_Gervais,3,   1.099
p_17874_Fred_Dalton_Thompson,3,   0.693
p_17918_Francis_Capra,3,  -0.000
p_18041_Oded_Fehr,3,   1.667
p_18050_Elle_Fanning,3,   1.550
p_18065_Jimmy_Nail,3,  -0.000
p_18070_Nicky_Katt,3,   1.099
p_18182_Olga_Kurylenko,3,   1.040
p_18190_Justin_Cooper,3,  -0.000
p_18197_Anna_Karina,3,  -0.000
p_18248_Mary_Louise_Parker,3,   1.550
p_18262_Richard_Riehle,3,   1.099
p_18269_Brendan_Fraser,3,   1.792
p_18274_Michael_Haley,3,  -0.000
p_18316_Ally_Walker,3,  -0.000
p_18331_Nancy_Travis,3,   1.099
p_18355_Alex_Winter,3,  -0.000
p_18365_Sandy_Dennis,3,   0.693
p_18514_Asia_Argento,3,   1.906
p_18616_David_Morrissey,3,   1.099
p_18646_Thomas_Gomez,3,  -0.000
p_18647_Bradford_Dillman,3,   1.099
p_18649_John_Randolph,3,  -0.000
p_18686_Holly_Hunter,3,   1.471
p_18688_Harry_Connick_Jr_,3,   1.099
p_18706_Meredith_Salenger,3,  -0.000
p_18803_Van_Heflin,3,  -0.000
p_18841_Bud_Spencer,3,  -0.000
p_18870_Ned_Glass,3,  -0.000
p_18892_Goldie_Hawn,3,   1.952
p_18913_Lynne_Frederick,3,  -0.000
p_18917_Erick_Avari,3,  -0.000
p_18972_Danny_Masterson,3,  -0.000
p_18974_Laura_Prepon,3,  -0.000
p_18975_Wilmer_Valderrama,3,   0.693
p_18976_Ashton_Kutcher,3,   1.748
p_18979_Christina_Applegate,3,   0.736
p_18998_Rosemary_Harris,3,   0.693
p_19137_Lou_Ferrigno,3,  -0.000
p_19143_Jason_Priestley,3,   0.637
p_19153_Cliff_Robertson,3,   1.820
p_19154_Daniel_Gillies,3,   0.693
p_19185_Mario_Lopez,3,   0.693
p_19187_Tiffani_Thiessen,3,  -0.000
p_19222_Rachel_True,3,  -0.000
p_19265_Khandi_Alexander,3,   0.693
p_19384_Tony_Todd,3,   1.748
p_19429_Bruce_Lee,3,   0.693
p_19463_Harry_Andrews,3,  -0.000
p_19492_Viola_Davis,3,   1.055
p_19508_Nolan_North,3,  -0.000
p_19537_Megan_Fox,3,   1.277
p_19610_Michael_Crawford,3,   1.386
p_19664_Samaire_Armstrong,3,   0.693
p_19728_Mark_Harmon,3,   0.693
p_19754_Tony_Cox,3,  -0.000
p_19766_Sook_Yin_Lee,3,  -0.000
p_19797_Marlee_Matlin,3,  -0.000
p_19855_Suzuka_Ohgo,3,  -0.000
p_19898_Vladimir_Kulich,3,  -0.000
p_19957_Wendy_Crewson,3,   1.099
p_19974_Greg_Germann,3,  -0.000
p_19975_Michael_Rosenbaum,3,  -0.000
p_20006_Christopher_Reeve,3,   1.581
p_20113_Claude_Dauphin,3,  -0.000
p_20125_Clifton_Webb,3,   0.693
p_20127_Martita_Hunt,3,  -0.000
p_20155_Dorothy_Dandridge,3,  -0.000
p_20156_Sammy_Davis__Jr_,3,   0.693
p_20186_Damian_Lewis,3,   0.693
p_20196_Boyd_Banks,3,  -0.000
p_20211_John_Getz,3,   0.693
p_20215_Billy_Campbell,3,   1.332
p_20239_Vincent_Perez,3,   1.386
p_20277_David_Suchet,3,   1.561
p_20289_Neil_Jackson,3,  -0.000
p_20362_Jill_Clayburgh,3,   1.040
p_20364_George_Brent,3,  -0.000
p_20377_Matthew_Knight,3,   0.637
p_20381_Jenna_Dewan,3,   1.099
p_20391_Jane_Wyman,3,   0.693
p_20405_Brian_Posehn,3,   1.099
p_20472_Norah_Jones,3,  -0.000
p_20497_Fergie,3,  -0.000
p_20564_Tony_Musante,3,  -0.000
p_20644_Aasif_Mandvi,3,  -0.000
p_20759_Yancy_Butler,3,   1.040
p_20761_Sven_Ole_Thorsen,3,  -0.000
p_20766_Richard_E__Grant,3,   1.099
p_20815_Skye_McCole_Bartusiak,3,   0.693
p_20980_Victoria_Pratt,3,   0.693
p_21027_Mika_Boorem,3,   1.386
p_21128_Raven_Goodwin,3,  -0.000
p_21131_Joe_Lo_Truglio,3,   0.693
p_21246_Corbin_Bernsen,3,  -0.000
p_21316_Nestor_Carbonell,3,  -0.000
p_21355_DMX,3,  -0.000
p_21356_D_B__Woodside,3,  -0.000
p_21366_Roma_Maffia,3,  -0.000
p_21416_William_Devane,3,  -0.000
p_21430_Natassia_Malthe,3,  -0.000
p_21474_Leslie_Stefanson,3,  -0.000
p_21485_Blake_Clark,3,   0.693
p_21505_Robert_Wisdom,3,  -0.000
p_21525_Blanche_Baker,3,   0.693
p_21594_Chris_Klein,3,   1.040
p_21605_Dirk_Bogarde,3,   0.693
p_21629_Tzi_Ma,3,   1.055
p_21711_Erika_Christensen,3,   1.332
p_21874_Alan_Young,3,  -0.000
p_21876_Yvette_Mimieux,3,   0.693
p_22082_Lacey_Chabert,3,   1.011
p_22092_Frankie_Avalon,3,   1.386
p_22125_Jimmi_Simpson,3,   1.099
p_22383_Franco_Nero,3,  -0.000
p_22434_Betsy_Russell,3,   1.242
p_22600_Edmund_Gwenn,3,   1.099
p_22602_J__Pat_O_Malley,3,   0.693
p_22820_Jenna_Stern,3,  -0.000
p_22821_David_Zayas,3,   0.693
p_22970_Peter_Dinklage,3,   1.889
p_23532_Jason_Bateman,3,   2.020
p_23626_Liev_Schreiber,3,   1.642
p_23627_Patricia_Kalember,3,   0.693
p_23629_Brian_O_Halloran,3,   0.693
p_23706_Eve_Gordon,3,  -0.000
p_24198_Anne_Dudek,3,  -0.000
p_24203_Rhea_Perlman,3,   0.637
p_24264_Craig_Ferguson,3,   1.386
p_24487_Christophe_Malavoy,3,  -0.000
p_24589_Paul_Mercurio,3,   0.693
p_24811_Victor_Buono,3,  -0.000
p_24965_Scott_Wolf,3,   1.099
p_25438_Ed_Speleers,3,  -0.000
p_25503_Mandy_Patinkin,3,   1.386
p_25504_Andre_the_Giant,3,   0.693
p_25872_Laura_Harris,3,  -0.000
p_25884_Mary_Lynn_Rajskub,3,   0.693
p_25934_David_Boreanaz,3,   1.099
p_26042_Jerry_Stiller,3,   0.693
p_26044_Bill_Erwin,3,  -0.000
p_26142_Millie_Perkins,3,  -0.000
p_26223_Jenna_Jameson,3,  -0.000
p_26258_Kenneth_Cranham,3,  -0.000
p_26283_Gerrit_Graham,3,  -0.000
p_26291_Martin_Henderson,3,   0.693
p_26293_Rachael_Bella,3,  -0.000
p_26483_Valerie_Perrine,3,  -0.000
p_26491_Vernon_Wells,3,  -0.000
p_26513_Debra_Winger,3,   0.950
p_26655_Brittany_Paige_Bouck,3,  -0.000
p_26718_Dorian_Missick,3,  -0.000
p_26723_Katheryn_Winnick,3,   0.637
p_26973_John_White,3,  -0.000
p_26974_Jessy_Schram,3,  -0.000
p_27004_Meghan_Heffern,3,  -0.000
p_27016_Lauren_C__Mayhew,3,  -0.000
p_27036_Tony_Siragusa,3,  -0.000
p_27396_Sonia_Braga,3,   1.099
p_27545_Bruce_Altman,3,   0.693
p_27554_Alan_Bates,3,   1.332
p_27561_Amy_Stewart,3,  -0.000
p_27563_Amy_Irving,3,   1.386
p_27578_Ellen_Page,3,   1.735
p_27585_Wilhelm_von_Homburg,3,  -0.000
p_27725_Jane_Kaczmarek,3,  -0.000
p_27726_Don_Knotts,3,   1.792
p_27736_Tom_Towles,3,  -0.000
p_27738_Chris_Hardwick,3,   0.693
p_27740_Walton_Goggins,3,  -0.000
p_27770_Dennis_Christopher,3,  -0.000
p_27804_Gunnar_Hansen,3,  -0.000
p_27860_Barry_Newman,3,  -0.000
p_27994_Bruce_Abbott,3,   0.693
p_28042_Rory_Culkin,3,   2.025
p_28166_Ben_Savage,3,  -0.000
p_28238_David_Hasselhoff,3,   1.386
p_28410_Jake_Busey,3,  -0.000
p_28848_Sean_Pertwee,3,  -0.000
p_29021_Roxanne_Hart,3,  -0.000
p_29069_Michael_Jayston,3,  -0.000
p_29077_Phillip_Van_Dyke,3,  -0.000
p_29258_Bessie_Love,3,   0.693
p_29426_John_Phillip_Law,3,   0.637
p_29427_Terry_Thomas,3,   0.693
p_29642_Lou_Costello,3,   0.693
p_29710_Bess_Armstrong,3,   0.693
p_29859_Richard_Briers,3,  -0.000
p_30002_Guy_Kibbee,3,   1.386
p_30068_Jeff_Denton,3,  -0.000
p_30155_Claudette_Colbert,3,  -0.000
p_30183_Erik_Rhodes,3,  -0.000
p_30315_Richard_Armitage,3,   0.693
p_30366_Victoria_Jackson,3,  -0.000
p_30485_CCH_Pounder,3,   0.693
p_30527_Charles_Bickford,3,  -0.000
p_30554_Ken_Curtis,3,   0.693
p_30694_Ross_Bagdasarian__Jr_,3,   0.693
p_31031_Kyla_Pratt,3,   0.693
p_31168_Kiele_Sanchez,3,   0.693
p_31383_Caroline_Dhavernas,3,  -0.000
p_31713_Brian_F__O_Byrne,3,   1.099
p_31903_Henry_Winkler,3,   1.386
p_31923_Oliver_Ford_Davies,3,  -0.000
p_31941_Prunella_Ransome,3,  -0.000
p_32029_Bill_Sage,3,  -0.000
p_32030_Guinevere_Turner,3,  -0.000
p_32389_Boyd_Gaines,3,  -0.000
p_32428_William_Powell,3,   0.693
p_33196_Jake_Lloyd,3,   0.693
p_33278_H_B__Warner,3,   0.693
p_33321_Sam_J__Jones,3,   0.693
p_33322_Melody_Anderson,3,  -0.000
p_33336_Gina_Holden,3,  -0.000
p_33482_Bob_Holt,3,  -0.000
p_33516_Tsuyoshi_Ihara,3,  -0.000
p_33665_Cindy_Crawford,3,  -0.000
p_33676_Kathleen_Robertson,3,   0.693
p_33689_Charlayne_Woodard,3,  -0.000
p_34195_Jayma_Mays,3,   0.637
p_34279_Will_Wright,3,   0.693
p_34490_Sarah_Paulson,3,   1.099
p_34544_Joshua_Harto,3,  -0.000
p_34665_Peter_Robbins,3,  -0.000
p_34845_Lola_Glaudini,3,   0.693
p_35017_David_Ashton,3,  -0.000
p_35038_Mel_Winkler,3,  -0.000
p_35040_Paul_Williams,3,  -0.000
p_35068_Vidya_Balan,3,   0.693
p_35109_Miriam_Flynn,3,  -0.000
p_35219_Corey_Burton,3,  -0.000
p_35257_Timothy_West,3,   0.693
p_35595_Scott_Foley,3,  -0.000
p_35689_Keenen_Ivory_Wayans,3,   1.099
p_35690_Shawn_Wayans,3,   1.040
p_35780_Amitabh_Bachchan,3,   1.386
p_35806_Shaquille_O_Neal,3,  -0.000
p_35849_Wallace_Ford,3,  -0.000
p_36055_Costas_Mandylor,3,   1.055
p_36218_Andrew_Divoff,3,  -0.000
p_36423_Tom_Green,3,   0.693
p_36554_Mary_Beth_Peil,3,  -0.000
p_36634_Julio_Cedillo,3,  -0.000
p_36669_Rupert_Friend,3,   1.475
p_36801_Adam_Scott,3,   1.242
p_36811_Nick_Cannon,3,   1.386
p_36819_Hayley_Mills,3,   1.609
p_36900_John_Sharian,3,  -0.000
p_37041_Andrew_McCarthy,3,   1.979
p_37042_Ann_Magnuson,3,  -0.000
p_37058_Anne_Marie_Duff,3,  -0.000
p_37233_Kareena_Kapoor,3,   0.693
p_37292_Adrienne_Pickering,3,  -0.000
p_37632_Eddie_Redmayne,3,   1.748
p_37917_Kristen_Stewart,3,   1.714
p_37936_Christina_Milian,3,   0.693
p_38225_Cher,3,   1.332
p_38358_Donald_Houston,3,  -0.000
p_38459_Karl_Markovics,3,  -0.000
p_38560_Lou_Diamond_Phillips,3,   1.792
p_38665_Max_Cullen,3,  -0.000
p_38674_Aisha_Tyler,3,   0.693
p_38761_Stuart_Whitman,3,  -0.000
p_38809_Camilla_Rutherford,3,  -0.000
p_38940_Evan_Rachel_Wood,3,   1.889
p_39127_Lisa_K__Wyatt,3,  -0.000
p_39214_Nick_Jameson,3,   0.693
p_39459_Hayley_Atwell,3,   0.693
p_39554_Jennifer_Jones,3,   1.386
p_39995_Michael_Cera,3,   1.055
p_40039_Josh_Stewart,3,  -0.000
p_40041_John_Alderton,3,  -0.000
p_40060_Tina_Holmes,3,  -0.000
p_40206_Tony_Randall,3,  -0.000
p_40241_Todd_Armstrong,3,  -0.000
p_40618_Eileen_Heckart,3,  -0.000
p_40633_Jamie_Parker,3,  -0.000
p_41089_Martin_Starr,3,  -0.000
p_41235_Stewart_Granger,3,   1.386
p_41240_Yvonne_De_Carlo,3,  -0.000
p_41258_Jennifer_Salt,3,  -0.000
p_41419_Hugh_Laurie,3,   1.332
p_41464_Scott_Mechlowicz,3,   1.099
p_41465_Robin_Thomas,3,   0.637
p_41505_Faith_Prince,3,  -0.000
p_41556_Omari_Hardwick,3,   1.040
p_41662_Lindsay_Sloane,3,   0.637
p_41784_Nathaniel_Lees,3,  -0.000
p_41820_Michelle_Forbes,3,  -0.000
p_42160_Ariel_Winter,3,   0.693
p_42176_Veronica_Hamel,3,  -0.000
p_42297_Brooke_D_Orsay,3,  -0.000
p_42604_John_Simm,3,  -0.000
p_42627_James_Wilby,3,  -0.000
p_42740_Christopher_Atkins,3,  -0.000
p_43232_Valerie_Cruz,3,  -0.000
p_43257_Krista_Bridges,3,  -0.000
p_43442_Kerr_Smith,3,   0.693
p_43443_Kristina_Anapau,3,  -0.000
p_43464_John_Patrick_Amedori,3,  -0.000
p_43798_Peggy_Mount,3,  -0.000
p_43805_Pamela_Stephenson,3,  -0.000
p_43893_Kimberly_J__Brown,3,   1.609
p_43902_Erik_Palladino,3,  -0.000
p_44052_John_Ingle,3,  -0.000
p_44208_Nigel_Bennett,3,  -0.000
p_44736_Goran_Kostic,3,  -0.000
p_44990_Peter_Horton,3,  -0.000
p_45127_Marketa_Irglova,3,  -0.000
p_45523_Lila_Kedrova,3,   0.693
p_45588_Clare_Higgins,3,  -0.000
p_46364_Shun_Oguri,3,  -0.000
p_46948_Kelly_LeBrock,3,   0.693
p_47177_Jorgen_Langhelle,3,  -0.000
p_47536_Cheryl_Campbell,3,  -0.000
p_47628_Julian_Morris,3,   0.693
p_47643_Robert_Pugh,3,  -0.000
p_47653_Aidan_McArdle,3,  -0.000
p_47822_Bouli_Lanners,3,  -0.000
p_47902_Marian_Mercer,3,  -0.000
p_48464_Joel_Palmer,3,  -0.000
p_48958_Debra_Paget,3,  -0.000
p_48959_Barry_Jones,3,   0.693
p_49271_Brian_Geraghty,3,   1.099
p_49352_Sally_Struthers,3,   0.693
p_49877_Nick_Mancuso,3,  -0.000
p_50217_Michael_Kelly,3,   1.040
p_51036_Louis_Ferreira,3,  -0.000
p_51300_Derek_Mears,3,   0.637
p_51310_Henry_Wilcoxon,3,  -0.000
p_51455_Johnny_Lewis,3,  -0.000
p_51764_Kent_Smith,3,  -0.000
p_51856_Jenna_Fischer,3,   0.950
p_51992_Odette_Annable,3,   1.040
p_51995_Theo_Rossi,3,   0.693
p_52117_Horatio_Sanz,3,  -0.000
p_52263_Arjun_Rampal,3,  -0.000
p_52306_Robert_Rusler,3,  -0.000
p_52365_Cerina_Vincent,3,  -0.000
p_52480_Eddie_Kaye_Thomas,3,   0.562
p_52605_Eva_Longoria,3,   1.099
p_52886_Jeffrey_Donovan,3,  -0.000
p_52969_Lisa_Ray,3,   1.099
p_52971_John_Abraham,3,   1.099
p_53256_Terry_Crews,3,   1.040
p_53336_Brandon_T__Jackson,3,  -0.000
p_53347_Michael_Roof,3,  -0.000
p_53367_Ruth_Sheen,3,  -0.000
p_53402_Richard_Jeni,3,  -0.000
p_53714_Rachel_McAdams,3,   1.834
p_53806_Kieran_Mulroney,3,  -0.000
p_53916_Ralph_Brown,3,  -0.000
p_53926_Jon_Heder,3,   0.868
p_53998_Nora_Jane_Noone,3,   0.693
p_54479_Bailee_Madison,3,   1.099
p_54499_Briana_Evigan,3,   1.099
p_54588_Nikki_Ziering,3,  -0.000
p_54817_Liane_Balaban,3,   0.693
p_55061_Kajol,3,   0.693
p_55086_Cam_Gigandet,3,   1.748
p_55538_Tim_Russ,3,  -0.000
p_55541_Eddie_Cibrian,3,  -0.000
p_55557_Michael_DeLuise,3,  -0.000
p_55779_John_Schneider,3,  -0.000
p_56015_Tom_Heaton,3,  -0.000
p_56120_Yuji_Okumoto,3,  -0.000
p_56152_Kari_Wuhrer,3,   1.332
p_56385_Grant_Bowler,3,  -0.000
p_56895_Amy_Jo_Johnson,3,   0.693
p_57119_Sinbad,3,   0.693
p_57278_Kate_Beahan,3,   0.693
p_57331_Bruce_Reitherman,3,  -0.000
p_57353_David_Graf,3,   0.693
p_57575_Natalie_Mendoza,3,   0.693
p_57578_MyAnna_Buring,3,   1.386
p_57773_Tyrin_Turner,3,  -0.000
p_57829_Anthony_LaPaglia,3,   2.303
p_57854_Cheryl_Hines,3,   0.693
p_58224_Jason_Sudeikis,3,   0.950
p_58792_Jack_Scalia,3,  -0.000
p_59017_Jurnee_Smollett,3,  -0.000
p_59075_Lee_Oakes,3,   0.693
p_59219_Kyle_Gallner,3,  -0.000
p_59238_Chris_Marquette,3,   1.906
p_59296_Daniella_Alonso,3,  -0.000
p_59860_Alice_Eve,3,   1.242
p_59962_Glynnis_O_Connor,3,  -0.000
p_59967_Rebecca_Gayheart,3,   1.386
p_60072_Sara_Paxton,3,   1.667
p_60158_Shirley_Jones,3,   1.748
p_60951_Craig_Kilborn,3,   0.693
p_61178_Alia_Shawkat,3,   1.099
p_61980_Wendie_Malick,3,  -0.000
p_62000_Tiffany_Shepis,3,   0.693
p_62001_Dee_Wallace,3,   1.040
p_62410_Sammo_Hung,3,   1.099
p_62564_Madeline_Carroll,3,  -0.000
p_62972_Tim_Plester,3,  -0.000
p_63046_Kelly_Jo_Minter,3,  -0.000
p_65590_Christopher_Gray,3,  -0.000
p_65760_Marin_Hinkle,3,  -0.000
p_66193_Chris_Sanders,3,  -0.000
p_66610_Elizabeth_Shepherd,3,  -0.000
p_66741_Taylor_Handley,3,   0.693
p_66881_Finola_Hughes,3,  -0.000
p_66986_John_Franklin,3,   0.693
p_67289_Eleanor_Audley,3,  -0.000
p_67599_Vanessa_Hudgens,3,   1.330
p_67600_Ashley_Tisdale,3,   1.242
p_67737_Tuva_Novotny,3,  -0.000
p_67787_Karen_Lynn_Gorney,3,  -0.000
p_67849_Mary_Kate_Olsen,3,   1.475
p_68430_Tia_Texada,3,   0.637
p_68727_Sunny_Besen_Thrasher,3,  -0.000
p_68728_Eva_Almos,3,  -0.000
p_68812_Ed_Asner,3,   1.099
p_68850_Lezlie_Deane,3,  -0.000
p_69129_George_P__Wilbur,3,  -0.000
p_70233_Ricki_Lake,3,   1.386
p_70843_Brian_Bedford,3,  -0.000
p_70881_Alan_Cox,3,  -0.000
p_71241_Justin_Henry,3,  -0.000
p_71282_Kate_Magowan,3,  -0.000
p_71552_Ari_Graynor,3,   1.332
p_72208_Alicia_Keys,3,   0.693
p_72997_Chris_Potter,3,  -0.000
p_73475_Adriano_Giannini,3,  -0.000
p_73937_Judith_Godreche,3,   0.693
p_75020_Stephen_Geoffreys,3,  -0.000
p_76068_Michael_Dorman,3,  -0.000
p_76996_Jonathan_Bennett,3,   0.637
p_77235_Bobby_Deol,3,  -0.000
p_77245_Scott_Morgan,3,  -0.000
p_77261_Michael_Carbonaro,3,  -0.000
p_77448_Ross_Thomas,3,  -0.000
p_77801_Marques_Houston,3,  -0.000
p_77948_Selena_Gomez,3,   1.561
p_78076_Wayne_Allwine,3,  -0.000
p_78080_Krysten_Ritter,3,   1.040
p_78852_Richard_Long,3,  -0.000
p_80219_James_Roday,3,   1.099
p_80591_Rashida_Jones,3,   1.332
p_80928_Ann_Reinking,3,   0.693
p_82631_Joseph_Sikora,3,  -0.000
p_82639_Ophelia_Lovibond,3,  -0.000
p_82702_Michael_Jackson,3,  -0.000
p_83099_Natalie_Desselle,3,  -0.000
p_83356_Jamie_Campbell_Bower,3,   0.693
p_84209_RonReaco_Lee,3,  -0.000
p_84214_Taylor_Lautner,3,   1.609
p_84312_John_Fleck,3,  -0.000
p_87440_Chris_Carmack,3,   0.693
p_95136_David_Henrie,3,  -0.000
p_96892_Shuler_Hensley,3,  -0.000
p_96973_Pedro_Armendariz,3,  -0.000
p_101519_Naturi_Naughton,3,  -0.000
p_105303_Fred_Melamed,3,  -0.000
p_109410_Joanne_Woodward,3,   1.946
p_109439_Kieran_Darcy_Smith,3,  -0.000
p_109513_Alexandra_Daddario,3,   0.693
p_109614_Betty_Garrett,3,  -0.000
p_142108_Jennifer_Stone,3,  -0.000
